<?xml version="1.0" encoding="UTF-8" standalone="no"?>
<svg
   xmlns:dc="http://purl.org/dc/elements/1.1/"
   xmlns:cc="http://creativecommons.org/ns#"
   xmlns:rdf="http://www.w3.org/1999/02/22-rdf-syntax-ns#"
   xmlns:svg="http://www.w3.org/2000/svg"
   xmlns="http://www.w3.org/2000/svg"
   xmlns:sodipodi="http://sodipodi.sourceforge.net/DTD/sodipodi-0.dtd"
   xmlns:inkscape="http://www.inkscape.org/namespaces/inkscape"
   version="1.0"
   width="5"
   height="6"
   id="svgdot"
   inkscape:version="0.47 r22583"
   sodipodi:docname="dot.svg">
  <metadata
     id="metadata8">
    <rdf:RDF>
      <cc:Work
         rdf:about="">
        <dc:format>image/svg+xml</dc:format>
        <dc:type
           rdf:resource="http://purl.org/dc/dcmitype/StillImage" />
      </cc:Work>
    </rdf:RDF>
  </metadata>
  <sodipodi:namedview
     pagecolor="#ffffff"
     bordercolor="#666666"
     borderopacity="1"
     objecttolerance="10"
     gridtolerance="10"
     guidetolerance="10"
     inkscape:pageopacity="0"
     inkscape:pageshadow="2"
     inkscape:window-width="1152"
     inkscape:window-height="771"
     id="namedview6"
     showgrid="false"
     inkscape:zoom="39.333333"
     inkscape:cx="-2.5084746"
     inkscape:cy="2.9491525"
     inkscape:window-x="699"
     inkscape:window-y="87"
     inkscape:window-maximized="0"
     inkscape:current-layer="svgdot" />
  <defs
     id="defsdot">
    <inkscape:perspective
       sodipodi:type="inkscape:persp3d"
       inkscape:vp_x="0 : 3 : 1"
       inkscape:vp_y="0 : 1000 : 0"
       inkscape:vp_z="5 : 3 : 1"
       inkscape:persp3d-origin="2.5 : 2 : 1"
       id="perspective10" />
  </defs>
  <text
     x="2.5"
     y="3"
     transform="scale(0.89833804,1.1131667)"
     id="textdot"
     xml:space="preserve"
     style="font-size:20px;font-style:normal;font-variant:normal;font-weight:bold;font-stretch:normal;text-align:center;line-height:125%;writing-mode:lr-tb;text-anchor:middle;fill:#ffffff;fill-opacity:1;stroke:none;font-family:Liberation Serif;"><tspan
       x="4.5"
       y="5"
       id="tspandot">dot</tspan></text>
  <path
     sodipodi:type="star"
     style="opacity:1;fill:#00002d;fill-opacity:1;fill-rule:evenodd;stroke:none"
     id="path2831"
     sodipodi:sides="3"
     sodipodi:cx="1.6271186"
     sodipodi:cy="1.5508475"
     sodipodi:r1="2.4003556"
     sodipodi:r2="1.2001778"
     sodipodi:arg1="2.0676071"
     sodipodi:arg2="3.1148047"
     inkscape:flatsided="true"
     inkscape:rounded="0.44"
     inkscape:randomized="0"
     d="M 0.4830508,3.6610171 C -1.1251144,2.7891204 -1.1874754,0.46173453 0.37169199,-0.49502904 1.9308593,-1.4517926 3.9776151,-0.34210583 4.026613,1.4865545 4.0756109,3.3152148 2.091216,4.5329139 0.4830508,3.6610171 z"
     transform="translate(0.96610169,1.4745763)" />
</svg>
